{
    "ami_name_prefix" : "gocd-server",
    "instance_type"   : "t2.medium",
    "region"          : "eu-west-1",
    "source_ami"      : "ami-063d4ab14480ac177",
    "subnet_id"	      : "subnet-8909c3fe"
}
